[gd_resource type="TileSet" load_steps=16 format=2]

[ext_resource path="res://Graphics/JungleDirtTileSet.png" type="Texture" id=1]

[sub_resource type="ConvexPolygonShape2D" id=1]

custom_solver_bias = 0.0
points = PoolVector2Array( -32, -32, 32, -32, 32, 32, -32, 32 )

[sub_resource type="ConvexPolygonShape2D" id=2]

custom_solver_bias = 0.0
points = PoolVector2Array( -32, -32, 32, -32, 32, 32, -32, 32 )

[sub_resource type="ConvexPolygonShape2D" id=3]

custom_solver_bias = 0.0
points = PoolVector2Array( -32, -32, 32, -32, 32, 32, -32, 32 )

[sub_resource type="ConvexPolygonShape2D" id=4]

custom_solver_bias = 0.0
points = PoolVector2Array( -32, -32, 32, -32, 32, 32, -32, 32 )

[sub_resource type="ConvexPolygonShape2D" id=5]

custom_solver_bias = 0.0
points = PoolVector2Array( -32, -32, 32, -32, 32, 32, -32, 32 )

[sub_resource type="ConvexPolygonShape2D" id=6]

custom_solver_bias = 0.0
points = PoolVector2Array( -32, -32, 32, -32, 32, 32, -32, 32 )

[sub_resource type="ConvexPolygonShape2D" id=7]

custom_solver_bias = 0.0
points = PoolVector2Array( -32, -32, 32, -32, 32, 32, -32, 32 )

[sub_resource type="ConvexPolygonShape2D" id=8]

custom_solver_bias = 0.0
points = PoolVector2Array( -32, -32, 32, -32, 32, 32, -32, 32 )

[sub_resource type="ConvexPolygonShape2D" id=9]

custom_solver_bias = 0.0
points = PoolVector2Array( -32, -32, 32, -32, 32, 32, -32, 32 )

[sub_resource type="ConvexPolygonShape2D" id=10]

custom_solver_bias = 0.0
points = PoolVector2Array( -32, -32, 32, -32, 32, 32, -32, 32 )

[sub_resource type="ConvexPolygonShape2D" id=11]

custom_solver_bias = 0.0
points = PoolVector2Array( -32, -32, 32, -32, 32, 32, -32, 32 )

[sub_resource type="ConvexPolygonShape2D" id=12]

custom_solver_bias = 0.0
points = PoolVector2Array( -32, -32, 32, -32, 32, 32, -32, 32 )

[sub_resource type="ConvexPolygonShape2D" id=13]

custom_solver_bias = 0.0
points = PoolVector2Array( -32, -32, 32, -32, 32, 32, -32, 32 )

[sub_resource type="ConvexPolygonShape2D" id=14]

custom_solver_bias = 0.0
points = PoolVector2Array( -32, -32, 32, -32, 32, 32, -32, 32 )

[resource]

0/name = "earth"
0/texture = ExtResource( 1 )
0/tex_offset = Vector2( 0, 0 )
0/modulate = Color( 1, 1, 1, 1 )
0/region = Rect2( 320, 320, 64, 64 )
0/is_autotile = false
0/occluder_offset = Vector2( 32, 32 )
0/navigation_offset = Vector2( 32, 32 )
0/shapes = [ {
"autotile_coord": Vector2( 0, 0 ),
"one_way": false,
"shape": SubResource( 1 ),
"shape_transform": Transform2D( 1, 0, 0, 1, 32, 32 )
} ]
1/name = "earth_floor"
1/texture = ExtResource( 1 )
1/tex_offset = Vector2( 0, 0 )
1/modulate = Color( 1, 1, 1, 1 )
1/region = Rect2( 64, 192, 64, 64 )
1/is_autotile = false
1/occluder_offset = Vector2( 32, 32 )
1/navigation_offset = Vector2( 32, 32 )
1/shapes = [ {
"autotile_coord": Vector2( 0, 0 ),
"one_way": false,
"shape": SubResource( 2 ),
"shape_transform": Transform2D( 1, 0, 0, 1, 32, 32 )
} ]
2/name = "earth_floor2"
2/texture = ExtResource( 1 )
2/tex_offset = Vector2( 0, 0 )
2/modulate = Color( 1, 1, 1, 1 )
2/region = Rect2( 0, 192, 64, 64 )
2/is_autotile = false
2/occluder_offset = Vector2( 32, 32 )
2/navigation_offset = Vector2( 32, 32 )
2/shapes = [ {
"autotile_coord": Vector2( 0, 0 ),
"one_way": false,
"shape": SubResource( 7 ),
"shape_transform": Transform2D( 1, 0, 0, 1, 32, 32 )
} ]
3/name = "earth_floor3"
3/texture = ExtResource( 1 )
3/tex_offset = Vector2( 0, 0 )
3/modulate = Color( 1, 1, 1, 1 )
3/region = Rect2( 128, 192, 64, 64 )
3/is_autotile = false
3/occluder_offset = Vector2( 32, 32 )
3/navigation_offset = Vector2( 32, 32 )
3/shapes = [ {
"autotile_coord": Vector2( 0, 0 ),
"one_way": false,
"shape": SubResource( 8 ),
"shape_transform": Transform2D( 1, 0, 0, 1, 32, 32 )
} ]
4/name = "earth_floor4"
4/texture = ExtResource( 1 )
4/tex_offset = Vector2( 0, 0 )
4/modulate = Color( 1, 1, 1, 1 )
4/region = Rect2( 192, 320, 64, 64 )
4/is_autotile = false
4/occluder_offset = Vector2( 32, 32 )
4/navigation_offset = Vector2( 32, 32 )
4/shapes = [ {
"autotile_coord": Vector2( 0, 0 ),
"one_way": false,
"shape": SubResource( 9 ),
"shape_transform": Transform2D( 1, 0, 0, 1, 32, 32 )
} ]
5/name = "earth_floor5"
5/texture = ExtResource( 1 )
5/tex_offset = Vector2( 0, 0 )
5/modulate = Color( 1, 1, 1, 1 )
5/region = Rect2( 128, 320, 64, 64 )
5/is_autotile = false
5/occluder_offset = Vector2( 32, 32 )
5/navigation_offset = Vector2( 32, 32 )
5/shapes = [ {
"autotile_coord": Vector2( 0, 0 ),
"one_way": false,
"shape": SubResource( 10 ),
"shape_transform": Transform2D( 1, 0, 0, 1, 32, 32 )
} ]
6/name = "earth_floor6"
6/texture = ExtResource( 1 )
6/tex_offset = Vector2( 0, 0 )
6/modulate = Color( 1, 1, 1, 1 )
6/region = Rect2( 128, 64, 64, 64 )
6/is_autotile = false
6/occluder_offset = Vector2( 32, 32 )
6/navigation_offset = Vector2( 32, 32 )
6/shapes = [ {
"autotile_coord": Vector2( 0, 0 ),
"one_way": false,
"shape": SubResource( 11 ),
"shape_transform": Transform2D( 1, 0, 0, 1, 32, 32 )
} ]
7/name = "earth_floor7"
7/texture = ExtResource( 1 )
7/tex_offset = Vector2( 0, 0 )
7/modulate = Color( 1, 1, 1, 1 )
7/region = Rect2( 64, 64, 64, 64 )
7/is_autotile = false
7/occluder_offset = Vector2( 32, 32 )
7/navigation_offset = Vector2( 32, 32 )
7/shapes = [ {
"autotile_coord": Vector2( 0, 0 ),
"one_way": false,
"shape": SubResource( 12 ),
"shape_transform": Transform2D( 1, 0, 0, 1, 32, 32 )
} ]
8/name = "earth_floor8"
8/texture = ExtResource( 1 )
8/tex_offset = Vector2( 0, 0 )
8/modulate = Color( 1, 1, 1, 1 )
8/region = Rect2( 0, 64, 64, 64 )
8/is_autotile = false
8/occluder_offset = Vector2( 32, 32 )
8/navigation_offset = Vector2( 32, 32 )
8/shapes = [ {
"autotile_coord": Vector2( 0, 0 ),
"one_way": false,
"shape": SubResource( 13 ),
"shape_transform": Transform2D( 1, 0, 0, 1, 32, 32 )
} ]
9/name = "earth_floor9"
9/texture = ExtResource( 1 )
9/tex_offset = Vector2( 0, 0 )
9/modulate = Color( 1, 1, 1, 1 )
9/region = Rect2( 64, 320, 64, 64 )
9/is_autotile = false
9/occluder_offset = Vector2( 32, 32 )
9/navigation_offset = Vector2( 32, 32 )
9/shapes = [ {
"autotile_coord": Vector2( 0, 0 ),
"one_way": false,
"shape": SubResource( 14 ),
"shape_transform": Transform2D( 1, 0, 0, 1, 32, 32 )
} ]
10/name = "earth_floor10"
10/texture = ExtResource( 1 )
10/tex_offset = Vector2( 0, 0 )
10/modulate = Color( 1, 1, 1, 1 )
10/region = Rect2( 0, 320, 64, 64 )
10/is_autotile = false
10/occluder_offset = Vector2( 32, 32 )
10/navigation_offset = Vector2( 32, 32 )
10/shapes = [ {
"autotile_coord": Vector2( 0, 0 ),
"one_way": false,
"shape": SubResource( 3 ),
"shape_transform": Transform2D( 1, 0, 0, 1, 32, 32 )
} ]
11/name = "earth_floor11"
11/texture = ExtResource( 1 )
11/tex_offset = Vector2( 0, 0 )
11/modulate = Color( 1, 1, 1, 1 )
11/region = Rect2( 192, 0, 64, 64 )
11/is_autotile = false
11/occluder_offset = Vector2( 32, 32 )
11/navigation_offset = Vector2( 32, 32 )
11/shapes = [ {
"autotile_coord": Vector2( 0, 0 ),
"one_way": false,
"shape": SubResource( 4 ),
"shape_transform": Transform2D( 1, 0, 0, 1, 32, 32 )
} ]
12/name = "earth_floor12"
12/texture = ExtResource( 1 )
12/tex_offset = Vector2( 0, 0 )
12/modulate = Color( 1, 1, 1, 1 )
12/region = Rect2( 256, 0, 64, 64 )
12/is_autotile = false
12/occluder_offset = Vector2( 32, 32 )
12/navigation_offset = Vector2( 32, 32 )
12/shapes = [ {
"autotile_coord": Vector2( 0, 0 ),
"one_way": false,
"shape": SubResource( 5 ),
"shape_transform": Transform2D( 1, 0, 0, 1, 32, 32 )
} ]
13/name = "earth_floor13"
13/texture = ExtResource( 1 )
13/tex_offset = Vector2( 0, 0 )
13/modulate = Color( 1, 1, 1, 1 )
13/region = Rect2( 320, 0, 64, 64 )
13/is_autotile = false
13/occluder_offset = Vector2( 32, 32 )
13/navigation_offset = Vector2( 32, 32 )
13/shapes = [ {
"autotile_coord": Vector2( 0, 0 ),
"one_way": false,
"shape": SubResource( 6 ),
"shape_transform": Transform2D( 1, 0, 0, 1, 32, 32 )
} ]
14/name = "earth2"
14/texture = ExtResource( 1 )
14/tex_offset = Vector2( 0, 0 )
14/modulate = Color( 1, 1, 1, 1 )
14/region = Rect2( 320, 320, 64, 64 )
14/is_autotile = false
14/occluder_offset = Vector2( 32, 32 )
14/navigation_offset = Vector2( 32, 32 )
14/shapes = [  ]
_sections_unfolded = [ "0", "Resource" ]

