[gd_resource type="GradientTexture" load_steps=2 format=2]

[ext_resource path="res://Tres/Sprite/gradient_tempest.tres" type="Gradient" id=1]


[resource]

flags = 4
gradient = ExtResource( 1 )
width = 2048

