[gd_resource type="StyleBoxFlat" format=2]

[resource]

content_margin_left = -1.0
content_margin_right = -1.0
content_margin_top = -1.0
content_margin_bottom = -1.0
bg_color = Color( 0.5, 0.5, 0.5, 1 )
draw_center = true
border_width_left = 1
border_width_top = 1
border_width_right = 1
border_width_bottom = 1
border_color = Color( 0.8, 0.8, 0.8, 1 )
border_blend = false
corner_radius_top_left = 2
corner_radius_top_right = 2
corner_radius_bottom_right = 2
corner_radius_bottom_left = 2
corner_detail = 8
expand_margin_left = 10.0
expand_margin_right = 10.0
expand_margin_top = 5.0
expand_margin_bottom = 5.0
shadow_color = Color( 0, 0, 0, 0.6 )
shadow_size = 0
anti_aliasing = true
anti_aliasing_size = 1
_sections_unfolded = [ "Anti Aliasing", "Border", "Border Width", "Content Margin", "Corner Radius", "Expand Margin", "Shadow" ]

