[gd_resource type="DynamicFont" load_steps=2 format=2]

[sub_resource type="DynamicFontData" id=1]
font_path = "res://Tres/Fonts/ttf/LiberationSans-BoldItalic.ttf"

[resource]
size = 12
font_data = SubResource( 1 )

