[gd_scene load_steps=7 format=2]

[ext_resource path="res://Scripts/Player/Items/Impulse_gre_one.gd" type="Script" id=1]
[ext_resource path="res://Nodes/Main_Scene/Level_elemt/Timer.tscn" type="PackedScene" id=2]
[ext_resource path="res://Graphics/Items/Impulse_gre_epic.png" type="Texture" id=3]



[sub_resource type="PhysicsMaterial" id=1]
bounce = 0.2

[sub_resource type="CircleShape2D" id=2]
radius = 32.0

[sub_resource type="CircleShape2D" id=3]
radius = 176.0

[node name="Impulse_gre_epic" type="RigidBody2D"]
z_index = 5
collision_layer = 4
physics_material_override = SubResource( 1 )
gravity_scale = 5.0
script = ExtResource( 1 )
power = 1000

[node name="CollisionShape2D" type="CollisionShape2D" parent="."]
scale = Vector2( 0.271429, 0.271429 )
shape = SubResource( 2 )

[node name="Timer" parent="." instance=ExtResource( 2 )]

[node name="Area" type="Area2D" parent="."]
visible = false

[node name="CollisionShape2D" type="CollisionShape2D" parent="Area"]
scale = Vector2( 1.25978, 1.25978 )
shape = SubResource( 3 )

[node name="Sprite" type="Sprite" parent="."]
position = Vector2( -1, 0 )
scale = Vector2( 0.53125, 0.5 )
texture = ExtResource( 3 )

