[gd_scene load_steps=3 format=2]

[ext_resource path="res://Scripts/Player/Items/Grappler_epic_pick.gd" type="Script" id=1]
[ext_resource path="res://Graphics/Items/Impulse_gre_epic.png" type="Texture" id=2]



[node name="Impulse_gre_pick" type="Area2D" index="0" groups=[
"to_reset",
]]

input_pickable = true
gravity_vec = Vector2( 0, 1 )
gravity = 98.0
linear_damp = 0.1
angular_damp = 1.0
audio_bus_override = false
audio_bus_name = "Master"
script = ExtResource( 1 )
_sections_unfolded = [ "Transform" ]
id = "Impulse_gre_epic"

[node name="Sprite" type="Sprite" parent="." index="0"]

scale = Vector2( 2, 2 )
texture = ExtResource( 2 )
_sections_unfolded = [ "Transform" ]

[node name="CollisionPolygon2D" type="CollisionPolygon2D" parent="." index="1"]

build_mode = 0
polygon = PoolVector2Array( -32, -32, 32, -32, 32, 32, -32, 32 )

[connection signal="body_entered" from="." to="." method="_on_Grappler_pick_body_entered"]


