[gd_scene load_steps=3 format=2]

[ext_resource path="res://Scripts/Area_action/Door.gd" type="Script" id=1]
[ext_resource path="res://Graphics/Level_items/Lama.png" type="Texture" id=2]




[node name="Door" type="Area2D"]

position = Vector2( 188, -32 )
input_pickable = true
gravity_vec = Vector2( 0, 1 )
gravity = 98.0
linear_damp = 0.1
angular_damp = 1.0
audio_bus_override = false
audio_bus_name = "Master"
script = ExtResource( 1 )
_sections_unfolded = [ "Transform", "Visibility" ]

[node name="Sprite" type="Sprite" parent="." index="0"]

position = Vector2( -3, -15 )
texture = ExtResource( 2 )
_sections_unfolded = [ "Animation", "Offset", "Region", "Transform" ]

[node name="CollisionPolygon2D" type="CollisionPolygon2D" parent="." index="1"]

build_mode = 0
polygon = PoolVector2Array( -52, -88, -52, 32, 52, 32, 52, -88 )

[node name="StaticBody2D" type="StaticBody2D" parent="." index="2"]

input_pickable = false
collision_layer = 1
collision_mask = 1
constant_linear_velocity = Vector2( 0, 0 )
constant_angular_velocity = 0.0
friction = 1.0
bounce = 0.0

[node name="CollisionPolygon2D" type="CollisionPolygon2D" parent="StaticBody2D" index="0"]

build_mode = 0
polygon = PoolVector2Array( -34, -58, -34, -44, -30, -44, -30, 4, -24, 4, -24, 32, 24, 32, 24, -22, -8, -22, -8, -58 )

[connection signal="body_entered" from="." to="." method="_on_Door_body_entered"]

[connection signal="body_exited" from="." to="." method="_on_Door_body_exited"]


