[gd_scene load_steps=3 format=2]

[ext_resource path="res://Nodes/Area_action/Key.tscn" type="PackedScene" id=1]
[ext_resource path="res://Nodes/Area_action/Door.tscn" type="PackedScene" id=2]





[node name="Key_Door" type="Node"]

[node name="Key" parent="." index="0" instance=ExtResource( 1 )]

[node name="Door" parent="." index="1" instance=ExtResource( 2 )]


