[gd_scene load_steps=4 format=2]

[ext_resource path="res://Scripts/Area_action/TrapArea.gd" type="Script" id=1]
[ext_resource path="res://Scripts/Level/Timer.gd" type="Script" id=2]
[ext_resource path="res://Tres/Animation/Trap_frame.tres" type="SpriteFrames" id=3]

[node name="Trap" type="Area2D" groups=[
"to_reset",
"aggressive",
]]
position = Vector2( 0, -32 )
scale = Vector2( 2, 1 )
input_pickable = false
collision_mask = 8
script = ExtResource( 1 )

[node name="Timer" type="Node" parent="."]
script = ExtResource( 2 )

[node name="CollisionPolygon2D" type="CollisionPolygon2D" parent="."]
polygon = PoolVector2Array( -32, 32, 32, 32, 32, -32, -32, -32 )

[node name="AnimatedSprite" type="AnimatedSprite" parent="."]
position = Vector2( 0, 30 )
scale = Vector2( 0.5, 0.96875 )
frames = ExtResource( 3 )
animation = "loaded"

[connection signal="body_entered" from="." to="." method="_on_Trap_body_entered"]
[connection signal="body_exited" from="." to="." method="_on_Trap_body_exited"]
