[gd_scene load_steps=3 format=2]

[ext_resource path="res://Nodes/Main_Scene/Level.tscn" type="PackedScene" id=1]
[ext_resource path="res://Nodes/Area_action/Trap.tscn" type="PackedScene" id=2]

[node name="Level" instance=ExtResource( 1 )]

Grappler_epic = true
key_delay = 20
key_delay_gold = 18.0

[node name="TileMap" parent="." index="0"]

tile_data = PoolIntArray( -1572850, 4, 0, -1507314, 4, 0, -1376257, 4, 0, -1441787, 2, 0, -1441786, 1, 0, -1441785, 1, 0, -1441784, 1, 0, -1441783, 1, 0, -1441778, 4, 0, -1310721, 4, 0, -1376251, 5, 0, -1376242, 4, 0, -1245185, 4, 0, -1310715, 5, 0, -1310706, 4, 0, -1179649, 4, 0, -1245179, 5, 0, -1245170, 4, 0, -1114113, 4, 0, -1179643, 5, 0, -1179634, 4, 0, -1048577, 4, 0, -1114107, 5, 0, -1114098, 4, 0, -983041, 4, 0, -1048571, 5, 0, -1048562, 4, 0, -917505, 4, 0, -983035, 5, 0, -983026, 4, 0, -851969, 4, 0, -917499, 5, 0, -917490, 4, 0, -786433, 4, 0, -851963, 5, 0, -851954, 4, 0, -720897, 4, 0, -786418, -1610612727, 0, -786417, 1, 0, -786416, 1, 0, -786415, 1, 0, -786414, 1, 0, -786413, 1, 0, -655361, 4, 0, -589825, 4, 0, -655355, 5, 0, -524289, 4, 0, -589819, 5, 0, -589810, 2, 0, -589809, 1, 0, -589808, 1, 0, -589807, 1, 0, -589806, 1, 0, -589805, 1, 0, -458753, 4, 0, -524283, 5, 0, -524274, 5, 0, -393217, 4, 0, -458747, 5, 0, -458738, 5, 0, -327681, 4, 0, -393211, 5, 0, -393202, 5, 0, -262145, 4, 0, -327675, 5, 0, -327666, 5, 0, -196609, 4, 0, -262139, 5, 0, -262130, 5, 0, -131073, 4, 0, -196603, 5, 0, -196594, 5, 0, -65537, 4, 0, -131067, 5, 0, -131058, 5, 0, -131057, 5, 0, -131056, 5, 0, -13, 0, 0, -12, 0, 0, -11, 0, 0, -10, 10, 0, -9, 1, 0, -8, 1, 0, -7, 1, 0, -6, 1, 0, -5, 1, 0, -4, 1, 0, -3, 1, 0, -2, 1, 0, -1, 1, 0, -65536, 7, 0, -65535, 7, 0, -65534, 7, 0, -65533, 7, 0, -65532, 7, 0, -65531, 1, 0, -65530, 1, 0, -65529, 1, 0, -65528, 1, 0, -65527, 1, 0, -65526, 1, 0, -65525, 1, 0, -65524, 1, 0, -65523, 1, 0, -65522, 0, 0, -65521, 0, 0, -65520, 0, 0, -65519, 0, 0, -65518, 0, 0, -65517, 0, 0, -65516, 0, 0, -65515, 0, 0, -65514, 0, 0, -65513, 0, 0, -65512, 0, 0, -65511, 0, 0 )

[node name="Trap" parent="Trap" index="0" instance=ExtResource( 2 )]

position = Vector2( 448, -96 )

[node name="Trap8" parent="Trap" index="1" instance=ExtResource( 2 )]

position = Vector2( 448, -1440 )

[node name="Trap10" parent="Trap" index="2" instance=ExtResource( 2 )]

position = Vector2( 576, -1440 )

[node name="Trap9" parent="Trap" index="3" instance=ExtResource( 2 )]

position = Vector2( 864, -1472 )
rotation = -1.57079

[node name="Trap2" parent="Trap" index="4" instance=ExtResource( 2 )]

position = Vector2( 576, -96 )

[node name="Trap3" parent="Trap" index="5" instance=ExtResource( 2 )]

position = Vector2( 704, -96 )

[node name="Trap4" parent="Trap" index="6" instance=ExtResource( 2 )]

position = Vector2( 832, -96 )

[node name="Trap11" parent="Trap" index="7" instance=ExtResource( 2 )]

position = Vector2( 960, -672 )
rotation = -3.14159

[node name="Trap5" parent="Trap" index="8" instance=ExtResource( 2 )]

position = Vector2( 416, -192 )
rotation = 1.5708

[node name="Trap6" parent="Trap" index="9" instance=ExtResource( 2 )]

position = Vector2( 416, -320 )
rotation = 1.5708

[node name="Trap7" parent="Trap" index="10" instance=ExtResource( 2 )]

position = Vector2( 416, -448 )
rotation = 1.5708

[node name="RESPAWN" parent="." index="5"]

position = Vector2( 160, -128 )

[node name="Door" parent="Key_Door" index="0"]

position = Vector2( 1056, -160 )

[node name="Key" parent="Key_Door" index="1"]

position = Vector2( 1056, -800 )

[node name="SCENE_LIMIT" parent="Tempest" index="0"]

margin_top = -1888.0
margin_right = 1920.0


