[gd_scene load_steps=4 format=2]

[ext_resource path="res://Nodes/Main_Scene/Level.tscn" type="PackedScene" id=1]
[ext_resource path="res://Nodes/Area_action/Boost.tscn" type="PackedScene" id=2]
[ext_resource path="res://Nodes/Area_action/IceTrap.tscn" type="PackedScene" id=3]

[node name="Level" instance=ExtResource( 1 )]

key_delay = 14
key_delay_gold = 13.0

[node name="TileMap" parent="." index="0"]

tile_data = PoolIntArray( -1376253, 8, 0, -1310717, 5, 0, -1245181, 5, 0, -1245180, 0, 0, -1179645, 5, 0, -1114109, 5, 0, -1048573, 5, 0, -983037, 5, 0, -917501, 5, 0, -851965, 5, 0, -786429, 5, 0, -720893, 5, 0, -720887, 1, 0, -720886, 1, 0, -720885, 1, 0, -655357, 5, 0, -655351, 0, 0, -655350, 0, 0, -655339, 0, 0, -655338, 0, 0, -655337, 0, 0, -589821, 5, 0, -589815, 0, 0, -589803, 1610612736, 0, -589802, 1610612736, 0, -589801, 1610612736, 0, -524285, 5, 0, -524279, 0, 0, -524267, 1610612736, 0, -524266, 1610612736, 0, -524265, 1610612736, 0, -458749, 5, 0, -393213, 5, 0, -327677, 5, 0, -262141, 5, 0, -196605, 5, 0, -131069, 5, 0, -65533, 5, 0, 65527, 1, 0, 65528, 1, 0, 65529, 1, 0, 65530, 1, 0, 65531, 1, 0, 65532, 1, 0, 65533, 1, 0, 65534, 1, 0, 65535, 1, 0, 0, 1, 0, 1, 1, 0, 2, 1, 0, 3, 1, 0, 4, 1, 0, 5, 1, 0, 6, 1, 0, 7, 1, 0, 8, 1, 0, 9, 1, 0, 10, 1, 0, 11, 1, 0, 12, 1, 0, 13, 1, 0, 14, 1, 0, 15, 1, 0, 16, 1, 0, 17, 1, 0, 18, 1, 0, 19, 1, 0, 20, 1, 0, 21, 1, 0, 22, 1, 0, 23, 1, 0, 24, 1, 0, 25, 1, 0, 26, 1, 0, 27, 1, 0, 28, 1, 0, 29, 1, 0, 30, 1, 0, 31, 9, 0, 32, 0, 0, 33, 0, 0, 34, 0, 0, 35, 0, 0, 36, 0, 0, 37, 0, 0, 38, 0, 0, 39, 0, 0, 40, 0, 0, 41, 0, 0, 42, 0, 0, 43, 0, 0, 44, 0, 0, 45, 0, 0, 46, 0, 0, 47, 0, 0 )

[node name="Boost2" parent="Boost" index="0" instance=ExtResource( 2 )]

position = Vector2( 288, -96 )
rotation = 1.5708
_sections_unfolded = [ "Transform", "Visibility" ]

[node name="Boost3" parent="Boost" index="1" instance=ExtResource( 2 )]

position = Vector2( 288, -288 )
rotation = 1.5708
_sections_unfolded = [ "Transform", "Visibility" ]

[node name="Boost4" parent="Boost" index="2" instance=ExtResource( 2 )]

position = Vector2( 288, -480 )
rotation = 1.5708
_sections_unfolded = [ "Transform", "Visibility" ]

[node name="Boost5" parent="Boost" index="3" instance=ExtResource( 2 )]

position = Vector2( 288, -672 )
rotation = 1.5708
_sections_unfolded = [ "Transform", "Visibility" ]

[node name="Boost6" parent="Boost" index="4" instance=ExtResource( 2 )]

position = Vector2( 288, -896 )
rotation = 1.5708
_sections_unfolded = [ "Transform", "Visibility" ]

[node name="IceTrap" parent="IceTrap" index="0" instance=ExtResource( 3 )]

position = Vector2( 1440, 0 )

[node name="RESPAWN" parent="." index="5"]

position = Vector2( 640, -768 )

[node name="Door" parent="Key_Door" index="0"]

position = Vector2( 96, -32 )

[node name="Key" parent="Key_Door" index="1"]

position = Vector2( 1472, -320 )

[node name="SCENE_LIMIT" parent="Tempest" index="0"]

margin_left = -736.0
margin_top = -1696.0
margin_right = 3232.0
margin_bottom = 64.0


