[gd_scene load_steps=5 format=2]

[ext_resource path="res://Nodes/Main_Scene/Level.tscn" type="PackedScene" id=1]
[ext_resource path="res://Nodes/Area_action/Boost.tscn" type="PackedScene" id=2]
[ext_resource path="res://Nodes/Area_action/Pad.tscn" type="PackedScene" id=3]
[ext_resource path="res://Graphics/Special_images/ball2.png" type="Texture" id=4]




[node name="Level" instance=ExtResource( 1 )]

Grappler_epic = true
Impulse_gre = true
key_delay = 16
key_delay_gold = 15.0

[node name="TileMap" parent="." index="0"]

tile_data = PoolIntArray( -3080171, 1, 0, -1966059, 1, 0, -1114100, 8, 0, -1114099, 7, 0, -1114098, 7, 0, -1114097, 7, 0, -1114096, 7, 0, -1114092, 7, 0, -1114091, 7, 0, -1114084, 7, 0, -1114083, 7, 0, -1114075, 7, 0, -1114074, 7, 0, -1114066, 7, 0, -1114065, 7, 0, -1114054, 7, 0, -1114053, 7, 0, -1114041, 7, 0, -1114040, 7, 0, -1114039, 7, 0, -1114038, 7, 0, -1114037, 7, 0, -1114036, 7, 0, -1048564, 5, 0, -1048563, -1610612726, 0, -1048562, 12, 0, -1048561, 12, 0, -1048560, 12, 0, -1048556, 12, 0, -1048555, 12, 0, -1048548, 12, 0, -1048547, 12, 0, -1048539, 12, 0, -1048538, 12, 0, -1048530, 12, 0, -1048529, 12, 0, -1048518, 12, 0, -1048517, 12, 0, -1048505, 12, 0, -1048504, 12, 0, -1048503, 12, 0, -1048502, 12, 0, -1048501, 12, 0, -1048500, 12, 0, -983028, 5, 0, -983027, 4, 0, -982966, 5, 0, -982965, 4, 0, -917492, 5, 0, -917491, 4, 0, -917430, 5, 0, -917429, 4, 0, -851956, 5, 0, -851955, 4, 0, -851894, 5, 0, -851893, 4, 0, -786420, 5, 0, -786419, 4, 0, -786358, 5, 0, -786357, 4, 0, -720884, 5, 0, -720883, 4, 0, -720822, 5, 0, -720821, 4, 0, -655348, 5, 0, -655347, 4, 0, -655286, 5, 0, -655285, 4, 0, -589812, 5, 0, -589811, 4, 0, -589750, 5, 0, -589749, 4, 0, -524276, 5, 0, -524275, 4, 0, -524214, 5, 0, -524213, 4, 0, -458740, 5, 0, -458739, 4, 0, -458678, 5, 0, -458677, 4, 0, -393204, 5, 0, -393203, 4, 0, -393142, 5, 0, -393141, 4, 0, -327668, 5, 0, -327667, 4, 0, -327606, 5, 0, -327605, 4, 0, -262132, 5, 0, -262131, 4, 0, -262070, 5, 0, -262069, 4, 0, -196596, 5, 0, -196595, 4, 0, -196534, 5, 0, -196533, 4, 0, -131060, 5, 0, -131059, 4, 0, -130998, 5, 0, -130997, 4, 0, -65536, 1, 0, -65535, 1, 0, -65534, 1, 0, -65533, 1, 0, -65532, 1, 0, -65531, 1, 0, -65530, 1, 0, -65529, 1, 0, -65528, 1, 0, -65527, 1, 0, -65526, 1, 0, -65525, 1, 0, -65524, 5, 0, -65523, 4, 0, -65462, 5, 0, -65461, 4, 0, -65460, 1, 0, -65459, 1, 0, -65458, 1, 0 )

[node name="Boost" parent="Boost" index="0" instance=ExtResource( 2 )]

visible = false
position = Vector2( 1440, -1056 )
rotation = 1.57079

[node name="Pad" parent="." index="4"]

editor/display_folded = true

[node name="Pad" parent="Pad" index="0" instance=ExtResource( 3 )]

position = Vector2( 576, -96 )

[node name="RESPAWN" parent="." index="5"]

position = Vector2( 304, -144 )

[node name="Key_Door" parent="." index="6"]

editor/display_folded = true

[node name="Door" parent="Key_Door" index="0"]

position = Vector2( 4992, -96 )

[node name="Key" parent="Key_Door" index="1"]

position = Vector2( 576, -384 )

[node name="Sprite" type="Sprite" parent="Sprites" index="0"]

position = Vector2( 1376, -3056 )
texture = ExtResource( 4 )

[node name="SCENE_LIMIT" parent="Tempest" index="0"]

margin_left = -144.0
margin_top = -3552.0
margin_right = 5168.0


