[gd_scene load_steps=4 format=2]

[ext_resource path="res://Nodes/Main_Scene/Level.tscn" type="PackedScene" id=1]
[ext_resource path="res://Nodes/Area_action/Trap.tscn" type="PackedScene" id=2]
[ext_resource path="res://Nodes/Area_action/Trapx2.tscn" type="PackedScene" id=3]

[node name="Level" index="0" instance=ExtResource( 1 )]

Grappler_epic = true
key_delay = 32
key_delay_gold = 30.0

[node name="TileMap" parent="." index="0"]

tile_data = PoolIntArray( -1179662, 1610612748, 0, -1179661, 1610612748, 0, -1179660, 1610612748, 0, -1179659, 1610612748, 0, -1179658, 1610612748, 0, -1179657, 1610612748, 0, -1179656, 1610612748, 0, -1179655, 1610612748, 0, -1179654, 1610612748, 0, -1179653, 1610612748, 0, -1179652, 1610612748, 0, -1179651, 1610612748, 0, -1179650, 1610612748, 0, -1179649, 1610612748, 0, -1245184, 1610612748, 0, -1245183, 1610612748, 0, -1245182, 1610612748, 0, -1245181, 1610612748, 0, -1245180, 1610612748, 0, -1245179, 1610612748, 0, -1245178, 1610612748, 0, -1245177, 1610612748, 0, -1245176, 1610612748, 0, -1245175, 1610612748, 0, -1245174, 1610612748, 0, -1245173, 1610612748, 0, -1245172, 1610612748, 0, -1245171, 1610612748, 0, -1245170, 1610612748, 0, -1245169, 1610612748, 0, -1245168, 1610612748, 0, -1245167, 1610612748, 0, -1245166, 1610612748, 0, -1245165, 1610612748, 0, -1245164, 1610612748, 0, -1245163, 1610612748, 0, -1245162, 1610612748, 0, -1245161, 1610612748, 0, -1245160, 1610612748, 0, -1245159, 1610612748, 0, -1245158, 1610612748, 0, -1245157, -1073741811, 0, -1179643, 5, 0, -1179642, 4, 0, -1179636, 5, 0, -1179635, 4, 0, -1179629, 5, 0, -1179628, 4, 0, -1179622, 5, 0, -1179621, 4, 0, -1114107, 5, 0, -1114106, 4, 0, -1114100, 5, 0, -1114099, 4, 0, -1114093, 5, 0, -1114092, 4, 0, -1114086, 5, 0, -1114085, 4, 0, -1048564, 5, 0, -1048563, 4, 0, -1048557, 5, 0, -1048556, 4, 0, -1048550, 5, 0, -1048549, 4, 0, -983028, 5, 0, -983027, 4, 0, -983021, 5, 0, -983020, 4, 0, -983014, 5, 0, -983013, 4, 0, -917492, 5, 0, -917491, 4, 0, -917485, 5, 0, -917484, 4, 0, -917478, 5, 0, -917477, 4, 0, -851956, 5, 0, -851955, 4, 0, -851949, 5, 0, -851948, 4, 0, -851942, 5, 0, -851941, 4, 0, -786420, 5, 0, -786419, 4, 0, -786413, 5, 0, -786412, 4, 0, -786406, 5, 0, -786405, 4, 0, -720884, 5, 0, -720883, 4, 0, -720877, 5, 0, -720876, 4, 0, -720870, 5, 0, -720869, 4, 0, -655348, 5, 0, -655347, 4, 0, -655341, 5, 0, -655340, 4, 0, -655334, 5, 0, -655333, 4, 0, -655326, -1073741824, 0, -589811, 4, 0, -589805, 5, 0, -589804, 4, 0, -589798, 5, 0, -589797, 4, 0, -589790, -1073741824, 0, -524275, 4, 0, -524268, 4, 0, -524262, 5, 0, -524261, 4, 0, -524254, -1073741824, 0, -458718, -1073741824, 0, -327668, 5, 0, -327667, 4, 0, -327661, 5, 0, -327660, 4, 0, -327654, 5, 0, -327653, 4, 0, -327647, 5, 0, -327646, -1073741824, 0, -327645, 4, 0, -262139, 5, 0, -262138, 4, 0, -262132, 5, 0, -262131, 4, 0, -262125, 5, 0, -262124, 4, 0, -262118, 5, 0, -262117, 4, 0, -262111, 5, 0, -262110, -1073741824, 0, -262109, 4, 0, -196603, 5, 0, -196602, 4, 0, -196596, 5, 0, -196595, 4, 0, -196589, 5, 0, -196588, 4, 0, -196582, 5, 0, -196581, 4, 0, -196575, 5, 0, -196574, -1073741824, 0, -196573, 4, 0, -131067, 5, 0, -131066, 4, 0, -131060, 5, 0, -131059, 4, 0, -131053, 5, 0, -131052, 4, 0, -131046, 5, 0, -131045, 4, 0, -131039, 5, 0, -131038, -1073741824, 0, -131037, 4, 0, -4, 1, 0, -3, 1, 0, -2, 1, 0, -1, 1, 0, -65536, 1, 0, -65535, 1, 0, -65534, 1, 0, -65533, 1, 0, -65532, 1, 0, -65531, 1, 0, -65530, 1, 0, -65529, 1, 0, -65528, 1, 0, -65527, 1, 0, -65526, 1, 0, -65525, 1, 0, -65524, 1, 0, -65523, 1, 0, -65522, 1, 0, -65521, 1, 0, -65520, 1, 0, -65519, 1, 0, -65518, 1, 0, -65517, 1, 0, -65516, 1, 0, -65515, 1, 0, -65514, 1, 0, -65513, 1, 0, -65512, 1, 0, -65511, 1, 0, -65510, 1, 0, -65509, 1, 0, -65508, 1, 0, -65507, 1, 0, -65506, 1, 0, -65505, 1, 0, -65504, 1, 0, -65503, 1, 0, -65502, 1, 0, -65501, 1, 0, -65500, 1, 0, -65499, 1, 0, -65498, 1, 0, -65497, 1, 0, -65496, 1, 0, -65495, 1, 0, -65494, 1, 0, -65493, 1, 0, -65492, 1, 0, -65491, 1, 0 )

[node name="Trap" parent="Trap" index="0" instance=ExtResource( 2 )]

position = Vector2( 832, -352 )

[node name="Trap2" parent="Trap" index="1" instance=ExtResource( 2 )]

position = Vector2( 1280, -352 )

[node name="Trap3" parent="Trap" index="2" instance=ExtResource( 2 )]

position = Vector2( 1728, -352 )

[node name="Trap4" parent="Trap" index="3" instance=ExtResource( 2 )]

position = Vector2( 2208, -352 )

[node name="Trapx3" parent="." index="2" instance=ExtResource( 3 )]

position = Vector2( 1824, -1024 )
rotation = 1.57079

[node name="Trapx5" parent="." index="3" instance=ExtResource( 3 )]

position = Vector2( 1824, -768 )
rotation = 1.57079

[node name="Trapx6" parent="." index="4" instance=ExtResource( 3 )]

position = Vector2( 2208, -672 )

[node name="RESPAWN" parent="." index="8"]

position = Vector2( -64, -128 )

[node name="Door" parent="Key_Door" index="0"]

position = Vector2( 128, -96 )

[node name="Key" parent="Key_Door" index="1"]

position = Vector2( 2656, -192 )

[node name="SCENE_LIMIT" parent="Tempest" index="0"]

visible = true
margin_left = -1792.0
margin_top = -1920.0
margin_right = 5824.0


