[gd_scene format=2]

[node name="SCENE_LIMIT" type="ColorRect"]

visible = false
anchor_left = 0.0
anchor_top = 0.0
anchor_right = 0.0
anchor_bottom = 0.0
margin_left = -512.0
margin_top = -352.0
margin_right = 5312.0
margin_bottom = 512.0
rect_pivot_offset = Vector2( 0, 0 )
rect_clip_content = false
mouse_filter = 0
mouse_default_cursor_shape = 0
size_flags_horizontal = 1
size_flags_vertical = 1
color = Color( 1, 1, 1, 0.22098 )
_sections_unfolded = [ "Focus", "Rect", "Theme" ]


