[gd_scene format=2]

[node name="Label" type="Label"]

anchor_left = 0.0
anchor_top = 0.0
anchor_right = 1.0
anchor_bottom = 1.0
rect_pivot_offset = Vector2( 0, 0 )
rect_clip_content = false
mouse_filter = 2
mouse_default_cursor_shape = 0
size_flags_horizontal = 1
size_flags_vertical = 4
text = "In Azerty keyboard:
Use \"left/right\" arrows or \"Q/D\" to move 
Use \"Up\" arrow or \"Space\" to jump
Use \"Down\" arrow or \"C\" or Shift\" to crouch
Use \"A\"  or \"Mouse middle button\" to enable training mode
Use \"V\" to skip a level

thank's for reporting bug at steven.clain27@gmail.com

Press Echap to Resume !"
valign = 1
percent_visible = 1.0
lines_skipped = 0
max_lines_visible = -1
_sections_unfolded = [ "Theme", "custom_fonts", "custom_styles" ]


