[gd_scene load_steps=2 format=2]

[ext_resource path="res://Scripts/UI/Level_grid_button.gd" type="Script" id=1]

[node name="Button" type="Button"]

anchor_left = 0.0
anchor_top = 0.0
anchor_right = 0.0
anchor_bottom = 0.0
margin_right = 16.0
margin_bottom = 24.0
rect_pivot_offset = Vector2( 0, 0 )
rect_clip_content = false
focus_mode = 2
mouse_filter = 0
mouse_default_cursor_shape = 0
size_flags_horizontal = 1
size_flags_vertical = 1
toggle_mode = false
enabled_focus_mode = 2
shortcut = null
group = null
flat = false
align = 1
script = ExtResource( 1 )
_sections_unfolded = [ "custom_colors" ]

[connection signal="pressed" from="." to="." method="_on_Button_pressed"]


